^C:\USERS\11815166\SOURCE\REPOS\GDSTRUCT 23.09.19\GDSTRUCT 23.09.19\DEBUG\SOURCE.OBJ
C:\USERS\11815166\SOURCE\REPOS\GDSTRUCT 23.09.19\DEBUG\GDSTRUCT 23.09.19.EXE
C:\USERS\11815166\SOURCE\REPOS\GDSTRUCT 23.09.19\DEBUG\GDSTRUCT 23.09.19.ILK
C:\USERS\11815166\SOURCE\REPOS\GDSTRUCT 23.09.19\DEBUG\GDSTRUCT 23.09.19.PDB
